FPGA Chip (Cyc 10000) - FPGA Board (TEI0003-02) - Break-out board/Pmod VGA
N2 - D6 - VGA_B0
N1 - D7 - VGA_B1
P2 - D8 - VGA_B2
F16 - PIO_03 - VGA_B3
J1 - D9 - VGA_G0
J2 - D10 - VGA_G1
K2 - D11 - VGA_G2
L2 - D12 - VGA_G3
P1 - D13 - VGA_R0
R1 - D14 - VGA_R1
R11 - AIN7 - VGA_R2
T12 - AIN - VGA_R3
F15 - PIO_02 - VGA_VS
F13 - PIO_01 - VGA_HS

